ANNOTATION_TYPE	REVIEW_ID	START_INDEX	END_INDEX	ANNOTATED_TEXT	STATUS
ASPECT	157751	77	80	app	Related
ASPECT	155640	105	117	photo editor	Related
ASPECT	159287	587	590	app	Related
ASPECT	156256	659	662	app	Related
ASPECT	156204	721	724	app	Related
ASPECT	158695	790	821	watercolor and fattal 1 effects	Related
ASPECT	158695	781	784	app	Related
ASPECT	158695	923	926	app	Related
ASPECT	156290	1016	1019	app	Related
ASPECT	155213	1038	1047	PHOTO APP	Related
ASPECT	155213	1060	1063	app	Related
ASPECT	157817	1142	1145	app	Related
ASPECT	156540	1350	1353	app	Related
ASPECT	156783	1745	1747	ap	Related
ASPECT	157579	1868	1871	app	Related
ASPECT	157579	1882	1885	app	Related
ASPECT	158579	2019	2033	fatal 1 effect	Related
ASPECT	157808	2301	2307	PS app	Foreign
ASPECT	159572	2359	2362	app	Related
ASPECT	157254	2459	2468	photo app	Related
ASPECT	157254	2642	2645	app	Related
ASPECT	158943	2754	2765	application	Related
ASPECT	158894	2950	2962	photo editer	Related
ASPECT	157902	3125	3128	app	Related
ASPECT	157902	3125	3128	app	Related
ASPECT	157406	3540	3547	picsart	Related
ASPECT	157319	3590	3597	PicsArt	Related
ASPECT	157319	3705	3708	app	Related
ASPECT	158907	3764	3767	app	Related
ASPECT	156399	3967	3970	app	Related
ASPECT	159368	4011	4018	pic art	Related
ASPECT	157286	4108	4111	app	Related
ASPECT	157286	4157	4189	filtering and glamorizing photos	Related
ASPECT	157103	4375	4378	app	Related
ASPECT	156773	4494	4497	app	Related
ASPECT	156773	4503	4517	picture editor	Related
ASPECT	156931	4559	4562	app	Related
ASPECT	156931	4599	4613	new shape crop	Related
ASPECT	156931	4628	4639	new effects	Related
ASPECT	156931	4651	4694	double color,shear and water ripple effects	Related
ASPECT	158048	4769	4780	application	Related
ASPECT	157339	4811	4819	pics art	Related
ASPECT	156909	4891	4894	app	Related
ASPECT	156366	5221	5224	app	Related
ASPECT	156366	5174	5200	Network Conection requests	Foreign
ASPECT	159322	5352	5359	program	Related
ASPECT	156393	5471	5481	pic editor	Related
ASPECT	155179	5663	5666	app	Related
ASPECT	155179	5676	5679	app	Related
ASPECT	158379	5983	5986	app	Related
ASPECT	156206	6067	6074	borders	Related
ASPECT	157690	6104	6107	app	Related
ASPECT	157114	6139	6142	app	Related
ASPECT	157114	6173	6176	app	Related
ASPECT	155605	6194	6197	app	Related
ASPECT	159102	6366	6369	app	Related
ASPECT	156885	6576	6587	pics Editor	Related
ASPECT	155449	6698	6701	app	Related
ASPECT	155449	6722	6725	app	Related
ASPECT	156778	6817	6828	editing app	Related
ASPECT	158927	7091	7094	app	Related
ASPECT	159461	7105	7112	PicsArt	Related
ASPECT	159461	7147	7150	app	Related
ASPECT	158749	7253	7264	application	Related
ASPECT	159317	7327	7330	app	Related
ASPECT	157747	7420	7431	application	Related
ASPECT	159261	7534	7537	app	Related
ASPECT	156264	7594	7605	this update	Related
ASPECT	158136	7704	7707	app	Related
ASPECT	156532	7786	7789	app	Related
ASPECT	156532	7930	7933	app	Related
ASPECT	159179	8034	8037	app	Related
ASPECT	157308	8072	8075	app	Related
ASPECT	155255	8298	8301	app	Related
ASPECT	155255	8319	8322	app	Related
ASPECT	157495	8401	8404	app	Related
ASPECT	159562	8509	8534	Photo Editing Application	Related
ASPECT	158438	8745	8748	app	Related
ASPECT	157627	8801	8804	app	Related
ASPECT	157627	8825	8828	app	Related
ASPECT	158145	8868	8871	app	Related
ASPECT	158451	8909	8912	app	Related
ASPECT	159111	8990	9002	editting app	Related
ASPECT	155313	9194	9201	picsart	Related
ASPECT	158151	9634	9647	blending tool	Foreign
ASPECT	159534	9705	9712	Effects	Related
ASPECT	156907	9849	9852	app	Related
ASPECT	155533	9957	9965	pics art	Related
ASPECT	159214	10149	10152	app	Related
ASPECT	158223	10189	10192	app	Related
ASPECT	158223	10198	10215	photo editing app	Related
ASPECT	157571	10283	10290	effects	Related
ASPECT	155306	10359	10362	app	Related
ASPECT	156645	10570	10573	app	Related
ASPECT	155995	10706	10715	uploading	Related
ASPECT	155995	10608	10612	apps	Related
ASPECT	155692	10991	10994	app	Related
ASPECT	156876	11092	11095	app	Related
ASPECT	157655	11368	11372	apps	Related
ASPECT	157728	11406	11409	app	Related
ASPECT	158652	11488	11499	new upgrade	Related
ASPECT	156214	11722	11733	picture app	Related
ASPECT	157255	11837	11840	App	Related
ASPECT	156652	11984	11987	app	Related
ASPECT	158473	12049	12052	app	Related
ASPECT	158338	12073	12076	app	Related
ASPECT	158338	12171	12174	app	Related
ASPECT	156949	12615	12618	app	Related
ASPECT	158253	12650	12658	edioting	Related
ASPECT	158541	12739	12742	app	Related
ASPECT	158436	12847	12864	photo editing app	Related
ASPECT	158436	12925	12932	Editing	Related
ASPECT	158436	13095	13104	programme	Related
ASPECT	156432	13367	13374	picsart	Related
ASPECT	156069	13510	13518	pics art	Related
ASPECT	157260	13587	13590	app	Related
ASPECT	155311	13644	13662	save edited photos	Related
ASPECT	155311	13673	13677	save	Related
ASPECT	156911	13891	13895	apps	Related
ASPECT	157221	13960	13963	app	Related
ASPECT	156905	14270	14277	effects	Related
ASPECT	156219	14545	14548	APP	Related
ASPECT	157099	14918	14921	app	Related
ASPECT	155960	14968	14982	editing photos	Related
ASPECT	155949	15132	15153	photo editor/modifier	Related
ASPECT	157375	15498	15509	application	Related
ASPECT	157702	15594	15597	app	Related
ASPECT	159006	16107	16110	app	Related
ASPECT	156161	16165	16177	photo editor	Related
ASPECT	156209	16280	16283	app	Related
ASPECT	156209	16305	16324	picture collage app	Related
ASPECT	156209	16395	16406	art effects	Related
ASPECT	155414	16475	16478	app	Related
ASPECT	156945	16582	16585	app	Related
ASPECT	155700	16688	16695	edition	Related
ASPECT	155223	17071	17078	PicsArt	Related
ASPECT	159167	17183	17222	save the downloaded frames even offline	Foreign
ASPECT	157336	17243	17247	open	Related
ASPECT	157336	17276	17279	app	Related
ASPECT	158293	17439	17442	app	Related
ASPECT	156337	17643	17646	app	Related
ASPECT	156337	17673	17676	app	Related
ASPECT	158595	17781	17784	app	Related
ASPECT	158687	17884	17887	app	Related
ASPECT	158687	17893	17906	photo effects	Related
ASPECT	158687	18076	18079	app	Related
ASPECT	156200	18264	18267	App	Related
ASPECT	157826	18534	18537	app	Related
ASPECT	157826	18557	18566	save mask	Foreign
ASPECT	157289	18647	18662	save to sd card	Related
ASPECT	155258	18793	18805	downld effts	Related
ASPECT	159056	19345	19348	App	Related
ASPECT	156506	19862	19865	app	Related
ASPECT	156695	20010	20013	app	Related
ASPECT	155549	20053	20056	app	Related
ASPECT	157430	20081	20085	apps	Related
ASPECT	155312	20328	20345	photo editing app	Related
ASPECT	155938	20631	20634	app	Related
ASPECT	155619	20677	20680	app	Related
ASPECT	159278	20702	20714	photo editor	Related
ASPECT	157033	20871	20874	app	Related
ASPECT	155788	20935	20938	app	Related
ASPECT	155788	20951	20954	app	Related
ASPECT	156496	21027	21030	app	Related
ASPECT	156246	21122	21125	app	Related
ASPECT	156172	21294	21298	apps	Related
ASPECT	158873	21502	21505	app	Related
ASPECT	158933	21547	21554	pic art	Related
ASPECT	157798	21707	21710	app	Related
ASPECT	157552	21847	21850	app	Related
ASPECT	158360	22015	22018	app	Related
ASPECT	156320	22074	22077	App	Related
ASPECT	156320	22111	22114	app	Related
ASPECT	158086	22177	22180	app	Related
ASPECT	158086	22199	22202	app	Related
ASPECT	158554	22303	22306	app	Related
ASPECT	155231	22336	22339	app	Related
ASPECT	155723	22366	22369	app	Related
ASPECT	155723	22382	22385	app	Related
ASPECT	158480	22418	22421	app	Related
ASPECT	157779	22554	22561	PicsArt	Related
ASPECT	157779	22597	22610	mobile editor	Related
ASPECT	157999	22668	22671	app	Related
ASPECT	158274	22993	22996	app	Related
ASPECT	155625	23102	23108	editor	Related
ASPECT	159039	23136	23139	app	Related
ASPECT	156782	23236	23239	app	Related
ASPECT	156782	23246	23249	app	Related
ASPECT	155242	23294	23297	App	Related
ASPECT	156962	23333	23336	aap	Related
ASPECT	158576	23552	23555	app	Related
ASPECT	158731	23579	23582	app	Related
ASPECT	158089	23674	23677	app	Related
ASPECT	158730	23866	23877	application	Related
ASPECT	158845	23962	23965	app	Related
ASPECT	155170	24232	24235	app	Related
ASPECT	155170	24249	24252	app	Related
ASPECT	156701	24597	24600	App	Related
ASPECT	156701	24611	24618	effects	Related
ASPECT	156701	24628	24630	UI	Related
ASPECT	156163	24733	24736	app	Related
ASPECT	157334	24902	24905	app	Related
ASPECT	156976	25197	25200	app	Related
ASPECT	155367	25433	25436	app	Related
ASPECT	155367	25433	25436	app	Foreign
ASPECT	158679	25625	25628	app	Related
ASPECT	155591	25657	25660	aap	Related
ASPECT	155591	25668	25679	editing aap	Related
ASPECT	155591	25683	25690	picsart	Related
ASPECT	155591	25718	25721	app	Related
ASPECT	159034	25920	25927	picsart	Related
ASPECT	159034	25936	25943	picsart	Related
ASPECT	156672	26031	26042	editing app	Related
ASPECT	156922	26125	26128	app	Related
ASPECT	156111	26501	26504	app	Related
ASPECT	155373	26615	26618	app	Related
ASPECT	158639	26636	26643	applctn	Related
ASPECT	158639	26666	26669	app	Related
ASPECT	158639	26695	26699	edit	Related
ASPECT	158639	26746	26749	app	Related
ASPECT	155246	26816	26831	photography app	Related
ASPECT	155246	26867	26874	filters	Related
ASPECT	155630	26947	26950	app	Related
ASPECT	156457	27125	27142	editing photo apk	Related
ASPECT	158842	27160	27163	app	Related
ASPECT	158842	27174	27177	app	Related
ASPECT	156417	27220	27223	App	Related
ASPECT	158146	27293	27297	work	Related
ASPECT	155917	27361	27364	app	Related
ASPECT	157609	27464	27467	app	Related
ASPECT	159401	27567	27578	application	Related
ASPECT	157622	27597	27600	App	Related
ASPECT	157622	27621	27624	app	Related
ASPECT	158792	28062	28065	app	Related
ASPECT	157716	28082	28085	App	Related
ASPECT	155594	28328	28331	app	Related
ASPECT	156349	28358	28361	app	Related
ASPECT	157503	28402	28413	application	Related
ASPECT	157503	28442	28454	interference	Related
ASPECT	156560	28599	28611	photo editor	Related
ASPECT	156726	28906	28920	skin whitening	Foreign
ASPECT	156726	28927	28945	body slimming tool	Foreign
ASPECT	155441	29059	29062	app	Related
ASPECT	155441	29068	29071	app	Related
ASPECT	155528	29177	29181	apps	Related
ASPECT	155528	29192	29196	apps	Related
ASPECT	155880	29490	29493	app	Related
ASPECT	158462	29615	29626	edit videos	Foreign
ASPECT	157091	29754	29765	application	Related
ASPECT	156600	29795	29801	editer	Related
ASPECT	158711	29825	29828	app	Related
ASPECT	158711	29847	29864	photo editing app	Related
ASPECT	158104	29910	29913	app	Related
ASPECT	159519	30010	30013	app	Related
ASPECT	158760	30361	30364	app	Related
ASPECT	156203	30481	30484	app	Related
ASPECT	156203	30550	30553	app	Related
ASPECT	158658	30580	30587	Picsart	Related
ASPECT	158658	30600	30617	Editing Photo App	Related
ASPECT	159220	30672	30675	app	Related
ASPECT	155294	30941	30944	app	Related
ASPECT	156152	31043	31050	effects	Related
ASPECT	157643	31087	31094	pic app	Related
ASPECT	159571	31454	31460	update	Related
ASPECT	159571	31583	31586	app	Related
ASPECT	157649	31662	31665	app	Related
ASPECT	156235	31733	31736	app	Related
ASPECT	156235	31744	31761	photo editing app	Related
