ANNOTATION_TYPE	REVIEW_ID	START_INDEX	END_INDEX	ANNOTATED_TEXT	STATUS
ASPECT	142433	15	18	app	Related
ASPECT	142433	78	87	interface	Related
ASPECT	140169	284	287	use	Related
ASPECT	140372	856	875	flip through photos	Related
ASPECT	140372	884	905	page forward in saves	Related
ASPECT	141135	1238	1243	Works	Related
ASPECT	142673	1648	1671	back to map&#34; button	Related
ASPECT	142673	1704	1707	map	Related
ASPECT	142036	1828	1831	app	Related
ASPECT	142234	1977	1980	app	Related
ASPECT	142234	1990	1996	search	Related
ASPECT	142234	2012	2016	save	Related
ASPECT	142974	2381	2384	APP	Related
ASPECT	142327	2924	2927	app	Related
ASPECT	141390	3701	3704	use	Related
ASPECT	141390	3776	3779	use	Related
ASPECT	139993	3873	3891	restaurant reviews	Related
ASPECT	139993	3967	3970	use	Related
ASPECT	142091	5170	5173	App	Related
ASPECT	141136	5260	5281	gathering information	Related
ASPECT	141569	5356	5359	app	Related
ASPECT	141547	5880	5912	information for places worldwide	Related
ASPECT	142332	6148	6152	Yelp	Foreign
ASPECT	142332	6154	6164	chow hound	Foreign
ASPECT	142332	6166	6169	que	Foreign
ASPECT	142332	6188	6190	TA	Related
ASPECT	141122	6476	6479	app	Related
ASPECT	140821	6818	6826	redesign	Related
ASPECT	139832	6928	6931	app	Related
ASPECT	139832	6996	6999	use	Related
ASPECT	140571	7327	7341	write a review	Related
ASPECT	142096	7522	7529	reviews	Related
ASPECT	142521	7659	7662	app	Related
ASPECT	140226	7696	7699	app	Related
ASPECT	140226	7747	7771	selection of restaurants	Related
ASPECT	140026	7850	7853	app	Related
ASPECT	140026	7872	7879	reviews	Related
ASPECT	142864	8479	8482	app	Related
ASPECT	142367	8910	8913	app	Related
ASPECT	141207	9076	9079	app	Related
ASPECT	142627	9347	9350	app	Related
ASPECT	142627	9363	9366	use	Related
ASPECT	140689	9478	9494	trip advisor app	Related
ASPECT	142922	9883	9898	Saved locations	Related
ASPECT	140426	10094	10105	old version	Related
ASPECT	142877	10376	10379	app	Related
ASPECT	141251	10430	10442	Trip advisor	Related
ASPECT	142487	10689	10709	Message notification	Related
ASPECT	142487	10755	10782	access any &#34;saved trips	Related
ASPECT	141618	11201	11204	app	Related
ASPECT	142136	11254	11258	info	Related
ASPECT	142136	11271	11274	use	Related
ASPECT	140321	11315	11318	app	Related
ASPECT	140863	12264	12289	a few more filter options	Foreign
ASPECT	140863	12330	12333	app	Related
ASPECT	142073	12536	12539	app	Related
ASPECT	141990	12562	12565	app	Related
ASPECT	142594	12912	12915	App	Related
ASPECT	141731	13826	13837	rate places	Related
ASPECT	141731	13842	13859	have your opinion	Related
ASPECT	141107	14360	14371	tripadvisor	Related
ASPECT	142835	14852	14864	Trip Advisor	Related
ASPECT	140238	15104	15107	use	Related
ASPECT	140071	15491	15502	new version	Related
ASPECT	140071	15532	15535	use	Related
ASPECT	141011	15725	15728	app	Related
ASPECT	142181	15828	15831	app	Related
ASPECT	142965	16012	16015	use	Related
ASPECT	141155	16052	16055	app	Related
ASPECT	142749	16089	16092	App	Related
ASPECT	142751	16630	16639	app works	Related
ASPECT	142751	16785	16788	use	Related
ASPECT	142173	16847	16850	App	Related
ASPECT	142031	17892	17899	reviews	Related
ASPECT	142031	17934	17943	App works	Related
ASPECT	140033	17979	17982	app	Related
ASPECT	140018	18214	18217	app	Related
ASPECT	140018	18214	18217	app	Related
ASPECT	141481	19200	19214	access reviews	Related
ASPECT	141481	19216	19234	change information	Related
ASPECT	140066	19445	19448	app	Related
ASPECT	140066	19517	19524	reviews	Related
ASPECT	141322	19624	19646	see locations on a map	Foreign
ASPECT	141322	19651	19672	view restaurant menus	Foreign
ASPECT	141551	20195	20198	use	Related
ASPECT	139885	20897	20909	trip advisor	Related
ASPECT	140718	21522	21534	trip advisor	Related
ASPECT	140718	21869	21895	read a category of reviews	Related
ASPECT	140387	22197	22213	new Trip advisor	Related
ASPECT	140491	22241	22257	using the TA App	Related
ASPECT	142701	23019	23022	app	Related
ASPECT	140106	23500	23554	easy access to reviews of restaurants and other places	Related
ASPECT	140106	23610	23623	flight search	Related
ASPECT	140245	23766	23769	app	Related
ASPECT	140370	24175	24178	app	Related
ASPECT	139891	24564	24566	UI	Related
ASPECT	139959	25372	25375	app	Related
ASPECT	139959	25693	25696	app	Related
ASPECT	140343	26546	26592	add new places that are not in the TA database	Foreign
ASPECT	139860	26724	26727	app	Related
ASPECT	141196	26815	26826	Information	Related
ASPECT	140147	27071	27107	locate places to eat, play, and stay	Related
ASPECT	141037	28051	28069	using trip advisor	Related
ASPECT	141037	28078	28087	app works	Related
ASPECT	140591	28111	28114	app	Related
ASPECT	141646	28306	28308	ap	Related
ASPECT	139815	28321	28333	Trip Advisor	Related
ASPECT	142026	28427	28430	use	Related
ASPECT	142486	29006	29009	app	Related
ASPECT	141256	30139	30151	Trip Advisor	Related
ASPECT	142018	31363	31369	design	Related
ASPECT	142377	31400	31403	app	Related
ASPECT	142377	31436	31442	prices	Related
ASPECT	142631	31905	31908	app	Related
ASPECT	142631	31936	31951	review reminder	Related
ASPECT	139964	32435	32446	post photos	Related
ASPECT	142171	32462	32480	ratings from users	Related
ASPECT	142171	32507	32514	mapping	Related
ASPECT	140104	32620	32623	app	Related
ASPECT	141610	32879	32882	app	Related
ASPECT	141610	32972	32975	app	Related
ASPECT	139999	33016	33019	app	Related
ASPECT	140994	33153	33164	ease of use	Related
ASPECT	141208	33208	33211	app	Related
ASPECT	141208	33296	33311	Near me feature	Related
ASPECT	141208	33483	33501	Filter by distance	Related
ASPECT	141208	33506	33520	sort by rating	Related
ASPECT	140055	33599	33605	design	Related
ASPECT	140055	33610	33623	functionality	Related
ASPECT	142731	33786	33813	Mobile access to the forums	Related
ASPECT	142257	34312	34324	Trip Advisor	Related
ASPECT	142257	34968	34974	design	Related
ASPECT	140533	35132	35161	filter restaurants by cuisine	Related
ASPECT	142607	35286	35291	Works	Related
ASPECT	140654	35542	35555	change cities	Related
ASPECT	140253	35671	35674	app	Related
ASPECT	142297	35751	35758	reviews	Related
ASPECT	140294	35939	35942	app	Related
ASPECT	141902	36133	36153	vote reviews helpful	Related
ASPECT	141902	36133	36153	vote reviews helpful	Related
ASPECT	141902	36291	36340	skip to the oldest/ newest Pics without scrolling	Foreign
ASPECT	142024	36678	36693	Updated version	Related
ASPECT	142024	36757	36760	app	Related
ASPECT	142024	37164	37167	app	Related
ASPECT	142970	37215	37218	use	Related
ASPECT	142970	37340	37343	app	Related
ASPECT	141722	37488	37510	check in on a location	Related
ASPECT	140054	37534	37537	app	Related
ASPECT	140420	37632	37640	open app	Related
ASPECT	139989	37677	37680	app	Related
ASPECT	139989	37705	37712	mapping	Related
ASPECT	141222	37953	37956	app	Related
ASPECT	139935	38001	38004	app	Related
ASPECT	142525	38119	38122	app	Related
ASPECT	142599	38146	38149	app	Related
ASPECT	140124	38622	38625	use	Related
ASPECT	140044	38729	38732	app	Related
ASPECT	140044	38804	38812	navigate	Related
ASPECT	140966	38886	38893	program	Related
ASPECT	142305	39106	39109	app	Related
ASPECT	142589	39190	39193	app	Related
ASPECT	140003	39238	39241	app	Related
ASPECT	141729	39647	39664	travel review app	Related
ASPECT	140493	39727	39730	app	Related
ASPECT	140694	39752	39760	navigate	Related
ASPECT	142976	39942	39945	use	Related
ASPECT	140417	40269	40275	app UI	Related
ASPECT	140417	40288	40291	use	Related
ASPECT	140417	40367	40370	app	Related
ASPECT	140061	40395	40406	tripadvisor	Related
ASPECT	140061	40420	40423	app	Related
ASPECT	142256	40524	40542	Restaurant ratings	Related
ASPECT	142256	40556	40569	hotel ratings	Related
ASPECT	142256	40665	40668	app	Related
ASPECT	140777	41060	41079	accepted the review	Related
ASPECT	142722	41879	41906	TripAdvisor recommendations	Related
ASPECT	142389	42127	42139	Trip Advisor	Related
ASPECT	141604	42351	42363	trip advisor	Related
ASPECT	141221	42606	42617	application	Related
ASPECT	141695	43316	43319	App	Related
ASPECT	140609	43378	43391	latest update	Related
ASPECT	140825	43449	43459	former app	Related
ASPECT	140825	43520	43526	update	Related
ASPECT	141078	44148	44151	app	Related
ASPECT	142323	44282	44285	app	Related
ASPECT	142323	44338	44363	save&#34; places to go to	Related
ASPECT	142323	44424	44450	favorite&#34; form threads	Foreign
ASPECT	142021	44554	44587	share newly discovered thingstodo	Foreign
ASPECT	141431	44604	44607	app	Related
ASPECT	141964	45045	45086	see my &#34;saves&#34; sorted by distance	Foreign
ASPECT	141677	45367	45370	use	Related
ASPECT	141677	45375	45383	navigate	Related
ASPECT	141677	45393	45415	portrait view for iPad	Foreign
ASPECT	140436	45478	45485	reviews	Related
ASPECT	142623	45526	45529	use	Related
ASPECT	141353	45770	45777	reviews	Related
ASPECT	141257	47198	47201	app	Related
ASPECT	142088	47675	47678	app	Related
ASPECT	140081	47830	47833	app	Related
ASPECT	141166	48189	48199	travel app	Related
ASPECT	140613	48253	48256	app	Related
ASPECT	141914	48458	48470	trip advisor	Related
ASPECT	142697	49166	49181	tripadvisor app	Related
ASPECT	142314	49467	49470	app	Related
ASPECT	140917	49880	49893	write reviews	Related
ASPECT	140917	49898	49921	find great places to go	Related
ASPECT	140604	49972	49986	leave a review	Related
ASPECT	140604	50010	50023	month visited	Related
ASPECT	139840	50177	50201	map with the attractions	Related
ASPECT	142199	50307	50310	app	Related
ASPECT	141509	50558	50561	app	Related
ASPECT	140833	50697	50704	MySaves	Related
ASPECT	140833	50901	50907	update	Related
ASPECT	141949	51526	51537	old version	Related
ASPECT	142195	52145	52148	app	Related
ASPECT	139882	52178	52189	application	Related
ASPECT	142365	52301	52304	app	Related
ASPECT	140696	52966	52969	app	Related
ASPECT	140696	53029	53036	Reviews	Related
ASPECT	140696	53056	53059	app	Related
ASPECT	142114	53160	53167	reviews	Related
ASPECT	142004	53418	53447	reading everone elses reviews	Related
ASPECT	142004	53602	53605	App	Related
ASPECT	140316	53622	53625	app	Related
ASPECT	142748	54018	54021	app	Related
ASPECT	140485	54620	54634	Latest version	Related
ASPECT	139981	54818	54821	use	Related
ASPECT	139981	54833	54846	rating system	Related
ASPECT	139939	54868	54871	app	Related
ASPECT	140397	55186	55192	Forums	Related
ASPECT	140396	55288	55291	app	Related
ASPECT	140396	55301	55304	use	Related
ASPECT	141189	55453	55460	reviews	Related
ASPECT	141002	55490	55493	app	Related
ASPECT	141777	56308	56311	app	Related
ASPECT	141591	56625	56638	All the email	Related
ASPECT	141591	56721	56732	TripAdvisor	Related
ASPECT	139991	57281	57318	pull up nearby restaurants and hotels	Related
ASPECT	139991	57344	57357	write reviews	Related
ASPECT	141751	57745	57748	app	Related
ASPECT	142790	57988	57991	app	Related
ASPECT	142908	58189	58213	tool for planning a trip	Related
ASPECT	141930	58624	58627	use	Related
ASPECT	141265	58648	58660	Trip advisor	Related
ASPECT	141265	58679	58683	tool	Related
ASPECT	141265	58798	58823	upload pictures of places	Related
ASPECT	142349	59238	59244	search	Related
ASPECT	140895	59988	59991	app	Related
ASPECT	140895	60284	60287	app	Related
ASPECT	140185	61329	61332	app	Related
ASPECT	142489	61525	61532	reviews	Related
ASPECT	141402	62664	62667	app	Related
ASPECT	140542	63110	63123	Prior version	Related
ASPECT	140457	63704	63707	app	Related
ASPECT	139956	63823	63826	app	Related
ASPECT	141035	63900	63903	app	Related
ASPECT	141035	63931	63934	use	Related
ASPECT	140752	64315	64318	app	Related
ASPECT	140752	64374	64382	navigate	Related
ASPECT	140793	64445	64456	This update	Related
ASPECT	142583	65392	65395	app	Related
ASPECT	139992	65498	65501	app	Related
ASPECT	141760	65713	65716	app	Related
ASPECT	142104	65903	65915	Trip Advisor	Related
ASPECT	141860	66427	66442	a portrait view	Foreign
ASPECT	142174	66604	66607	app	Related
ASPECT	141010	66718	66755	more filters (such as dining options)	Foreign
ASPECT	142030	66926	66929	app	Related
ASPECT	141504	67228	67236	navigate	Related
ASPECT	141627	67586	67589	app	Related
ASPECT	140257	67731	67734	app	Related
ASPECT	140826	67776	67782	update	Related
ASPECT	140208	68312	68315	app	Related
ASPECT	141312	68327	68340	Prices listed	Related
ASPECT	141086	68442	68464	rate and write reviews	Related
ASPECT	140254	68548	68553	loads	Related
ASPECT	140254	68568	68573	looks	Related
ASPECT	140950	69050	69069	write a good review	Related
ASPECT	141443	69525	69528	app	Related
ASPECT	141443	69625	69629	tool	Related
ASPECT	142074	69647	69656	trip tool	Related
ASPECT	140862	69708	69711	app	Related
ASPECT	142150	69891	69896	use	Related
ASPECT	142150	69921	69925	tool	Related
ASPECT	139845	69940	69949	interface	Related
ASPECT	139845	69979	69990	application	Related
ASPECT	141352	70023	70026	app	Related
ASPECT	141352	70104	70122	enlarge the photos	Foreign
ASPECT	139988	70398	70434	add pictures from your mobile device	Foreign
ASPECT	141879	70545	70557	Trip Advisor	Related
ASPECT	140140	71481	71539	individual resort map of all the resorts available to view	Foreign
ASPECT	140411	73345	73348	app	Related
ASPECT	140580	73635	73638	aop	Related
ASPECT	141405	73850	73862	Trip Advisor	Related
ASPECT	141405	73874	73877	app	Related
ASPECT	140427	75134	75145	old version	Related
ASPECT	142825	75497	75511	trip companion	Related
ASPECT	141188	75536	75539	app	Related
ASPECT	141003	75658	75661	use	Related
ASPECT	141540	75748	75751	app	Related
ASPECT	142810	75827	75830	app	Related
ASPECT	140217	75866	75877	New version	Related
ASPECT	140217	75900	75906	design	Related
ASPECT	141580	75937	75940	app	Related
ASPECT	142797	75959	75968	interface	Related
ASPECT	140326	76549	76552	app	Related
ASPECT	142182	77218	77222	load	Related
ASPECT	142340	77662	77674	Trip Advisor	Related
